Correlaciones
…
anscombe_y <- 
  anscombe_tb |>
  pivot_longer(cols = y1:y4, names_to = "dataset", values_to = "y") |> 
  select(-contains("x"), -dataset)

anscombe_tidy <-
  anscombe_x |> mutate("y" = anscombe_y$y)
anscombe_tidy

# A tibble: 44 × 3
   dataset     x     y
   <chr>   <dbl> <dbl>
 1 1          10  8.04
 2 2          10  9.14
 3 3          10  7.46
 4 4           8  6.58
 5 1           8  6.95
 6 2           8  8.14
 7 3           8  6.77
 8 4           8  5.76
 9 1          13  7.58
10 2          13  8.74
# ℹ 34 more rows
…
Vamos a poner en práctica lo aprendido con el dataset wine.csv disponible en el campus.

datos <- read_csv(file = "./datos/wine.csv")

Rows: 27 Columns: 7
── Column specification ────────────────────────────────────────────────────────
Delimiter: ","
dbl (7): Year, Price, WinterRain, AGST, HarvestRain, Age, FrancePop

ℹ Use `spec()` to retrieve the full column specification for this data.
ℹ Specify the column types or set `show_col_types = FALSE` to quiet this message.

datos

# A tibble: 27 × 7
    Year Price WinterRain  AGST HarvestRain   Age FrancePop
   <dbl> <dbl>      <dbl> <dbl>       <dbl> <dbl>     <dbl>
 1  1952  7.50        600  17.1         160    31    43184.
 2  1953  8.04        690  16.7          80    30    43495.
 3  1955  7.69        502  17.2         130    28    44218.
 4  1957  6.98        420  16.1         110    26    45152.
 5  1958  6.78        582  16.4         187    25    45654.
 6  1959  8.08        485  17.5         187    24    46129.
 7  1960  6.52        763  16.4         290    23    46584.
 8  1961  8.49        830  17.3          38    22    47128.
 9  1962  7.39        697  16.3          52    21    48089.
10  1963  6.71        608  15.7         155    20    48799.
# ℹ 17 more rows
…
