Aprendizaje Supervisado I
…
anscombe_y <- 
  anscombe_tb |>
  pivot_longer(cols = y1:y4, names_to = "dataset", values_to = "y") |> 
  select(-contains("x"), -dataset)

anscombe_tidy <-
  anscombe_x |> mutate("y" = anscombe_y$y)
anscombe_tidy

# A tibble: 44 × 3
   dataset     x     y
   <chr>   <dbl> <dbl>
 1 1          10  8.04
 2 2          10  9.14
 3 3          10  7.46
 4 4           8  6.58
 5 1           8  6.95
 6 2           8  8.14
 7 3           8  6.77
 8 4           8  5.76
 9 1          13  7.58
10 2          13  8.74
# ℹ 34 more rows
…
