Aprendizaje Supervisado I
…
anscombe_y <- 
  anscombe_tb |>
  pivot_longer(cols = y1:y4, names_to = "dataset", values_to = "y") |> 
  select(-contains("x"), -dataset)

anscombe_tidy <-
  anscombe_x |> mutate("y" = anscombe_y$y)
anscombe_tidy

# A tibble: 44 × 3
   dataset     x     y
   <chr>   <dbl> <dbl>
 1 1          10  8.04
 2 2          10  9.14
 3 3          10  7.46
 4 4           8  6.58
 5 1           8  6.95
 6 2           8  8.14
 7 3           8  6.77
 8 4           8  5.76
 9 1          13  7.58
10 2          13  8.74
# ℹ 34 more rows
…
Fíjate que ahora, amén que hay un efecto lineal significativo de la altura y de tener \(R^2\) mayor, \(\beta_1\) tiene una precisión mayor. En este caso solo podía quitar uno (perderíamos \(X\)), pero veremos más adelante cómo decidir cuál quitar si tuviésemos varias variables.

Clases 7 y 8: caso práctico

¿De qué depende el precio del vino?

Caso práctico

Vamos a poner en práctica lo aprendido con el dataset wine.csv disponible en el campus.

datos <- read_csv(file = "./datos/wine.csv")
datos

# A tibble: 27 × 7
    Year Price WinterRain  AGST HarvestRain   Age FrancePop
   <dbl> <dbl>      <dbl> <dbl>       <dbl> <dbl>     <dbl>
 1  1952  7.50        600  17.1         160    31    43184.
 2  1953  8.04        690  16.7          80    30    43495.
 3  1955  7.69        502  17.2         130    28    44218.
 4  1957  6.98        420  16.1         110    26    45152.
 5  1958  6.78        582  16.4         187    25    45654.
 6  1959  8.08        485  17.5         187    24    46129.
 7  1960  6.52        763  16.4         290    23    46584.
 8  1961  8.49        830  17.3          38    22    47128.
 9  1962  7.39        697  16.3          52    21    48089.
10  1963  6.71        608  15.7         155    20    48799.
# ℹ 17 more rows
…
AGST: crecimiento medio de la temperatura (en grados Celsius) durante la temporada.

HarvestRain: lluvia (en mm) que cayó ese año durante la cosecha.

FrancePop: población (miles de habitantes) de Francia.

Ver más en detalles en https://doi.org/10.1080/09332480.1995.10542468

El objetivo: predecir el precio

Caso práctico

datos

# A tibble: 27 × 7
    Year Price WinterRain  AGST HarvestRain   Age FrancePop
   <dbl> <dbl>      <dbl> <dbl>       <dbl> <dbl>     <dbl>
 1  1952  7.50        600  17.1         160    31    43184.
 2  1953  8.04        690  16.7          80    30    43495.
 3  1955  7.69        502  17.2         130    28    44218.
 4  1957  6.98        420  16.1         110    26    45152.
 5  1958  6.78        582  16.4         187    25    45654.
 6  1959  8.08        485  17.5         187    24    46129.
 7  1960  6.52        763  16.4         290    23    46584.
 8  1961  8.49        830  17.3          38    22    47128.
 9  1962  7.39        697  16.3          52    21    48089.
10  1963  6.71        608  15.7         155    20    48799.
# ℹ 17 more rows
…
Análisis exploratorio inicial

¿Cómo se distribuyen las variables?

¿Hay datos atípicos?

Para ello podemos visualizar la distribución de cada variable haciendo uso de densidades, histogramas y/o boxplots (por ejemplo), pero si queremos ahorrar tiempo en visualizar convertimos nuestro dataset en tidydata

datos_tidy <-
  datos |> 
  pivot_longer(cols = everything(), names_to = "variable", values_to = "values")
datos_tidy

# A tibble: 189 × 2
   variable      values
   <chr>          <dbl>
 1 Year         1952   
 2 Price           7.50
 3 WinterRain    600   
 4 AGST           17.1 
 5 HarvestRain   160   
 6 Age            31   
 7 FrancePop   43184.  
 8 Year         1953   
 9 Price           8.04
10 WinterRain    690   
# ℹ 179 more rows
…
Clases 9: evaluación y predicción

¿Cómo se puede evaluar un modelo? ¿Qué métricas existen? ¿Cómo predecir?

Repitamos el proceso

Para interiorizar lo aprendido, vamos a repetir todo el proceso con el conjunto datos_linearreg.csv (las variables predictoras representan diferentes variables meteorológicas y la variable objetivo y la temperatura media en primavera, para distintas ciudades).

datos <- read_csv(file = "./datos/datos_linearreg.csv")
datos

# A tibble: 1,000 × 4
      x1     y     x2       x3
   <dbl> <dbl>  <dbl>    <dbl>
 1  5.64  17.3 -2.43   2.19   
 2  4.00  14.5  0.881  6.06   
 3  5.02  15.7  0.457  6.91   
 4  5.86  18.4 -4.03   1.27   
 5  4.65  13.3 -2.37   3.68   
 6  4.97  14.7 -5.48  -0.00953
 7  4.05  13.0 -1.24   3.79   
 8  5.38  17.8 -3.36   2.21   
 9  5.16  17.2 -3.52   1.42   
10  4.43  13.3  1.42   6.84   
# ℹ 990 more rows
…
Esa normal multivariante, componente a componente, deriva en

\[\widehat{\beta}_j\sim N \left(\beta_j, SE \left(\widehat{\beta}_j\right)^2 \right), \quad \frac{\widehat{\beta}_j - \beta_j}{SE \left(\widehat{\beta}_j\right)} \sim N \left(0, 1 \right), \quad \frac{\widehat{\beta}_j - \beta_j}{\widehat{SE} \left(\widehat{\beta}_j\right)} \sim t_{n-p-1}\]

donde \(SE \left(\widehat{\beta}_j\right)^2 = \sigma_{\varepsilon}^2 v_j\) y \(\widehat{SE} \left(\widehat{\beta}_j\right)^2 = \widehat{\sigma}_{\varepsilon}^2 v_j\), con \(v_j\) el elemento \(j\)-ésimo de la diagonal de \(\left( \mathbf{X}^{T}\mathbf{X} \right)^{-1}\) (matriz que representa la variabilidad de predictores)

Caso práctico: wine.csv

Vamos a volver a usar nuestros datos wine.csv

datos <- read_csv(file = "./datos/wine.csv")
datos

# A tibble: 27 × 7
    Year Price WinterRain  AGST HarvestRain   Age FrancePop
   <dbl> <dbl>      <dbl> <dbl>       <dbl> <dbl>     <dbl>
 1  1952  7.50        600  17.1         160    31    43184.
 2  1953  8.04        690  16.7          80    30    43495.
 3  1955  7.69        502  17.2         130    28    44218.
 4  1957  6.98        420  16.1         110    26    45152.
 5  1958  6.78        582  16.4         187    25    45654.
 6  1959  8.08        485  17.5         187    24    46129.
 7  1960  6.52        763  16.4         290    23    46584.
 8  1961  8.49        830  17.3          38    22    47128.
 9  1962  7.39        697  16.3          52    21    48089.
10  1963  6.71        608  15.7         155    20    48799.
# ℹ 17 more rows
…
